LGOROWLENGTH	24
CREATED	"12/2/2015"  # Time: 09:32
INSTRUMENTATION	"i1iO"
MEASUREMENT_SOURCE	"Illumination=D65	ObserverAngle=2	WhiteBase=Abs	Filter=NoFilter"
KEYWORD	"SampleID"
KEYWORD	"SAMPLE_NAME"
NUMBER_OF_FIELDS	8
BEGIN_DATA_FORMAT
SampleID	SAMPLE_NAME	XYZ_X	XYZ_Y	XYZ_Z	LAB_L	LAB_A	LAB_B
END_DATA_FORMAT
NUMBER_OF_SETS	936
BEGIN_DATA
1	A1	0.74	0.75	0.62	6.73	0.89	-0.08
2	A2	1.04	1.40	0.78	11.96	-9.94	5.84
3	A3	1.37	2.35	0.89	17.24	-22.06	13.06
4	A4	1.86	3.79	1.09	22.95	-33.80	19.90
5	A5	2.29	5.20	1.20	27.31	-42.92	25.85
6	A6	2.65	6.43	1.26	30.47	-49.37	30.44
7	A7	2.93	7.37	1.35	32.64	-53.66	33.12
8	A8	3.17	8.12	1.40	34.24	-56.30	35.18
9	A9	3.16	8.19	1.35	34.38	-57.16	36.05
10	A10	0.96	0.87	1.26	7.89	4.47	-8.38
11	A11	1.17	1.41	1.60	12.02	-5.71	-5.41
12	A12	1.54	2.40	1.87	17.45	-18.25	1.09
13	A13	1.94	3.76	2.01	22.86	-31.58	9.01
14	A14	2.64	5.53	2.38	28.20	-39.78	14.87
15	A15	2.79	6.63	2.29	30.94	-48.82	20.39
16	A16	3.61	8.37	2.80	34.74	-51.46	22.75
17	A17	3.39	8.80	2.47	35.59	-58.58	26.88
18	A18	3.88	9.49	2.83	36.91	-56.70	26.22
19	A19	1.34	1.02	2.76	9.12	11.90	-21.12
20	A20	2.00	2.00	3.87	15.47	1.78	-17.84
21	A21	2.09	2.73	4.20	18.93	-11.04	-13.91
22	A22	2.95	4.71	4.99	25.88	-24.10	-6.28
23	A23	3.11	6.08	5.00	29.62	-37.46	0.07
24	A24	3.55	7.67	5.13	33.28	-46.00	5.74
25	B1	3.67	8.77	4.82	35.54	-53.94	11.28
26	B2	3.89	9.76	4.74	37.41	-58.76	14.90
27	B3	3.92	10.04	4.55	37.91	-60.38	16.81
28	B4	1.24	1.04	0.55	9.33	7.83	5.68
29	B5	1.64	1.85	0.75	14.66	-3.63	11.21
30	B6	2.19	3.17	0.89	20.70	-16.64	19.13
31	B7	2.81	4.95	1.03	26.59	-29.69	27.06
32	B8	3.41	6.70	1.17	31.11	-38.96	32.74
33	B9	3.89	8.18	1.28	34.35	-45.50	36.88
34	B10	4.26	9.37	1.38	36.68	-50.28	39.72
35	B11	4.55	10.25	1.41	38.29	-53.29	42.07
36	B12	4.61	10.44	1.40	38.62	-53.92	42.71
37	B13	1.26	1.01	1.10	9.04	9.97	-4.28
38	B14	1.58	1.71	1.44	13.89	-1.75	-0.34
39	B15	2.10	2.94	1.79	19.81	-14.73	6.00
40	B16	2.76	4.81	2.04	26.18	-28.94	14.47
41	B17	3.42	6.72	2.32	31.17	-39.00	20.55
42	B18	3.95	8.45	2.47	34.89	-47.06	25.66
43	B19	4.48	10.09	2.63	38.00	-52.97	29.71
44	B20	4.72	11.02	2.61	39.62	-56.88	32.67
45	B21	4.81	11.31	2.60	40.10	-57.71	33.52
46	B22	1.72	1.19	2.64	10.46	16.63	-17.85
47	B23	2.29	2.14	3.75	16.18	5.00	-15.91
48	B24	2.89	3.54	4.52	22.07	-8.87	-10.32
49	C1	3.41	5.23	4.79	27.39	-22.90	-2.63
50	C2	4.16	7.52	5.21	32.97	-35.67	4.80
51	C3	4.65	9.36	5.27	36.66	-44.97	10.82
52	C4	5.05	11.00	5.28	39.59	-52.52	15.84
53	C5	5.36	12.25	5.28	41.60	-57.43	19.29
54	C6	5.44	12.56	5.18	42.10	-58.59	20.66
55	C7	2.44	1.68	0.49	13.70	18.84	14.31
56	C8	3.05	2.66	0.64	18.64	8.89	20.09
57	C9	3.90	4.35	0.77	24.79	-4.11	28.13
58	C10	5.01	6.91	0.98	31.60	-18.61	36.49
59	C11	6.15	9.63	1.16	37.18	-29.43	43.44
60	C12	6.92	11.76	1.25	40.83	-37.16	48.53
61	C13	7.57	13.51	1.36	43.52	-42.44	51.78
62	C14	7.95	14.59	1.38	45.07	-45.65	54.11
63	C15	7.98	14.78	1.44	45.34	-46.51	53.93
64	C16	2.44	1.63	1.01	13.41	20.01	4.65
65	C17	2.91	2.52	1.39	18.01	8.99	7.33
66	C18	3.70	4.14	1.72	24.12	-4.28	14.16
67	C19	4.89	6.89	2.06	31.55	-19.85	23.53
68	C20	5.83	9.41	2.28	36.77	-31.20	30.46
69	C21	6.58	11.62	2.42	40.60	-39.68	35.90
70	C22	7.36	13.83	2.56	43.99	-46.49	40.58
71	C23	7.93	15.41	2.69	46.19	-50.65	43.30
72	C24	8.04	15.80	2.70	46.71	-51.85	44.18
73	D1	2.87	1.78	2.45	14.28	24.52	-9.73
74	D2	3.45	2.72	3.29	18.88	14.40	-8.22
75	D3	4.22	4.37	4.03	24.84	0.12	-2.70
76	D4	5.25	7.02	4.61	31.86	-16.81	6.04
77	D5	6.30	9.93	5.13	37.71	-30.10	13.38
78	D6	7.13	12.49	5.29	41.98	-40.06	19.94
79	D7	7.68	14.61	5.25	45.09	-48.22	25.48
80	D8	8.07	16.13	5.21	47.15	-53.48	29.21
81	D9	8.15	16.51	5.04	47.64	-54.90	30.96
82	D10	4.94	2.91	0.46	19.68	31.91	25.34
83	D11	5.88	4.12	0.58	24.08	24.07	30.58
84	D12	7.23	6.27	0.70	30.07	12.21	38.67
85	D13	9.15	9.82	0.90	37.52	-2.65	47.94
86	D14	10.94	13.60	1.05	43.65	-15.03	56.20
87	D15	12.24	16.71	1.24	47.89	-24.08	60.86
88	D16	13.37	19.43	1.29	51.18	-30.77	65.79
89	D17	14.19	21.30	1.40	53.28	-34.60	68.05
90	D18	14.33	21.70	1.42	53.71	-35.60	68.58
91	D19	5.10	2.97	1.01	19.94	32.77	15.90
92	D20	5.51	3.88	1.27	23.26	23.38	17.94
93	D21	6.66	5.88	1.54	29.10	10.79	24.65
94	D22	8.30	9.21	1.80	36.38	-5.02	34.43
95	D23	9.97	12.92	2.11	42.65	-18.08	42.18
96	D24	11.31	16.37	2.35	47.45	-28.74	48.36
97	E1	12.14	18.98	2.43	50.67	-36.75	53.18
98	E2	13.28	21.44	2.48	53.43	-41.06	57.51
99	E3	13.39	21.91	2.42	53.93	-42.51	58.89
100	E4	5.28	2.97	2.25	19.93	34.95	1.71
101	E5	5.82	3.96	2.97	23.54	25.74	2.11
102	E6	6.94	5.98	3.62	29.36	12.44	7.70
103	E7	8.41	9.28	4.09	36.51	-4.62	17.06
104	E8	9.90	12.96	4.44	42.71	-18.89	25.70
105	E9	11.21	16.47	4.64	47.59	-30.09	33.00
106	E10	12.31	19.80	4.79	51.61	-39.65	39.12
107	E11	13.19	22.34	4.87	54.38	-45.75	43.49
108	E12	13.18	22.72	4.72	54.78	-47.50	44.96
109	E13	8.36	4.52	0.43	25.32	43.23	35.55
110	E14	9.58	5.90	0.50	29.16	36.91	40.75
111	E15	11.35	8.35	0.63	34.69	26.54	47.84
112	E16	14.07	12.66	0.81	42.25	12.19	57.67
113	E17	16.74	17.53	1.05	48.92	-0.88	65.27
114	E18	19.11	22.22	1.20	54.26	-11.34	72.37
115	E19	21.28	26.56	1.37	58.57	-19.26	77.52
116	E20	22.32	28.99	1.46	60.77	-23.92	80.26
117	E21	22.27	29.27	1.42	61.02	-25.23	81.21
118	E22	8.24	4.44	0.91	25.06	43.27	26.35
119	E23	9.01	5.61	1.21	28.40	35.53	27.54
120	E24	10.49	7.85	1.44	33.67	24.59	33.69
121	F1	12.36	11.29	1.65	40.06	10.49	42.38
122	F2	14.99	16.18	1.84	47.21	-3.61	52.66
123	F3	17.09	20.75	2.01	52.68	-15.19	60.43
124	F4	19.00	25.19	2.17	57.26	-24.79	66.82
125	F5	20.47	28.52	2.28	60.35	-30.82	71.17
126	F6	20.78	29.29	2.28	61.04	-32.28	72.35
127	F7	8.39	4.41	2.01	25.00	44.86	12.70
128	F8	8.96	5.44	2.62	27.94	37.08	12.41
129	F9	10.16	7.47	3.09	32.86	25.57	17.31
130	F10	12.25	11.35	3.56	40.16	9.31	26.68
131	F11	14.64	16.23	3.95	47.28	-5.99	36.47
132	F12	16.69	20.96	4.19	52.91	-18.39	44.74
133	F13	18.59	25.81	4.38	57.85	-29.47	52.14
134	F14	19.96	29.42	4.44	61.15	-36.74	57.50
135	F15	20.02	30.05	4.38	61.70	-38.82	58.80
136	F16	12.56	6.41	0.41	30.43	53.33	44.79
137	F17	14.09	7.96	0.51	33.90	48.27	48.78
138	F18	16.50	10.78	0.60	39.20	39.69	56.33
139	F19	20.39	16.05	0.81	47.04	26.13	65.86
140	F20	23.87	21.74	1.00	53.75	13.31	74.29
141	F21	26.95	27.43	1.16	59.37	2.03	81.64
142	F22	29.82	33.00	1.35	64.16	-7.41	87.46
143	F23	32.16	37.22	1.46	67.44	-12.89	91.76
144	F24	33.13	38.58	1.46	68.45	-13.79	93.46
145	G1	12.33	6.25	0.89	30.05	53.41	35.25
146	G2	13.17	7.42	1.06	32.74	47.41	37.14
147	G3	14.99	9.83	1.21	37.53	38.09	43.34
148	G4	18.05	14.37	1.46	44.76	24.15	52.67
149	G5	21.39	20.00	1.67	51.84	10.28	62.45
150	G6	24.66	26.04	1.87	58.07	-1.92	71.09
151	G7	27.22	31.66	2.00	63.06	-12.78	78.41
152	G8	29.39	36.23	2.16	66.70	-19.94	83.19
153	G9	29.70	37.23	2.13	67.45	-22.01	84.80
154	G10	12.25	6.17	1.88	29.83	53.79	22.27
155	G11	13.11	7.37	2.44	32.63	47.51	22.02
156	G12	14.71	9.63	2.86	37.17	37.96	26.47
157	G13	17.64	14.19	3.27	44.50	23.03	36.13
158	G14	20.60	19.69	3.56	51.49	7.99	46.24
159	G15	23.45	25.59	3.83	57.64	-5.31	55.11
160	G16	26.39	32.21	4.04	63.52	-18.09	63.94
161	G17	28.75	37.57	4.25	67.70	-26.74	69.87
162	G18	29.28	38.94	4.26	68.71	-29.06	71.58
163	G19	17.60	8.63	0.45	35.27	62.63	52.24
164	G20	19.56	10.40	0.52	38.55	58.68	56.74
165	G21	22.61	13.55	0.61	43.58	51.52	63.69
166	G22	27.29	19.22	0.80	50.95	39.72	72.72
167	G23	32.45	26.23	0.97	58.25	27.73	82.46
168	G24	37.86	34.17	1.20	65.09	16.57	90.97
169	H1	42.26	41.69	1.39	70.65	6.30	98.16
170	H2	44.91	46.83	1.47	74.08	-0.71	103.04
171	H3	45.15	47.86	1.48	74.74	-2.82	104.09
172	H4	16.96	8.28	0.83	34.56	62.22	44.00
173	H5	18.47	9.81	0.98	37.50	57.63	46.60
174	H6	21.22	12.74	1.14	42.36	50.29	52.62
175	H7	24.94	17.57	1.28	48.97	38.55	62.15
176	H8	29.13	23.80	1.50	55.88	25.64	71.38
177	H9	33.42	30.72	1.68	62.27	13.83	80.31
178	H10	38.10	39.00	1.91	68.75	1.62	89.12
179	H11	41.83	45.85	2.09	73.45	-7.04	95.44
180	H12	42.55	47.50	2.10	74.51	-9.44	97.25
181	H13	17.13	8.31	1.79	34.62	62.94	31.45
182	H14	18.41	9.70	2.27	37.30	58.16	31.50
183	H15	20.63	12.32	2.74	41.72	50.27	35.22
184	H16	24.25	17.19	3.01	48.50	37.60	44.88
185	H17	28.44	23.66	3.38	55.74	23.58	54.72
186	H18	32.99	31.36	3.69	62.81	10.01	64.85
187	H19	38.17	40.93	4.00	70.13	-4.09	75.57
188	H20	41.76	48.38	4.14	75.06	-14.22	83.22
189	H21	42.36	50.08	4.15	76.12	-16.97	84.97
190	H22	21.69	10.35	0.46	38.47	69.32	57.68
191	H23	24.72	12.66	0.51	42.25	66.58	63.17
192	H24	28.87	16.35	0.62	47.43	61.06	70.05
193	I1	34.34	22.06	0.77	54.09	52.30	78.74
194	I2	40.80	30.01	0.98	61.66	40.62	88.27
195	I3	47.03	38.50	1.15	68.38	29.85	97.31
196	I4	53.48	48.05	1.37	74.86	19.19	105.59
197	I5	58.63	55.99	1.52	79.61	11.50	112.07
198	I6	59.92	57.91	1.54	80.69	9.93	113.63
199	I7	21.47	10.18	0.79	38.17	69.58	50.99
200	I8	23.64	11.96	0.90	41.15	66.61	54.14
201	I9	27.08	15.12	1.03	45.79	61.09	60.08
202	I10	32.30	20.71	1.22	52.63	51.41	69.25
203	I11	38.13	27.91	1.45	59.81	40.23	78.75
204	I12	44.16	36.19	1.62	66.66	29.09	88.53
205	I13	51.19	46.61	1.86	73.94	17.19	98.53
206	I14	57.27	56.35	2.05	79.81	7.32	106.78
207	I15	58.47	58.78	2.12	81.17	4.36	108.56
208	I16	21.68	10.23	1.80	38.25	70.19	37.61
209	I17	23.98	12.10	2.34	41.38	67.09	37.93
210	I18	27.40	15.29	2.70	46.02	61.38	42.97
211	I19	32.61	21.11	3.06	53.07	50.64	52.37
212	I20	38.00	28.15	3.31	60.02	38.91	62.60
213	I21	43.98	36.76	3.54	67.10	26.72	73.22
214	I22	51.02	47.87	3.79	74.74	13.27	84.85
215	I23	58.03	59.45	4.08	81.54	1.71	94.77
216	I24	60.38	63.39	4.08	83.65	-1.74	98.41
217	J1	22.54	10.68	0.45	39.04	70.79	58.75
218	J2	25.53	12.90	0.53	42.61	68.43	63.55
219	J3	29.69	16.54	0.58	47.67	63.20	71.27
220	J4	35.84	22.85	0.79	54.92	53.82	79.87
221	J5	42.45	30.58	0.94	62.15	43.50	89.71
222	J6	49.43	39.51	1.17	69.12	33.27	98.37
223	J7	56.80	49.47	1.33	75.74	23.70	107.64
224	J8	63.07	58.36	1.48	80.94	16.20	114.76
225	J9	64.71	60.68	1.47	82.21	14.45	117.03
226	J10	22.41	10.56	0.75	38.82	71.09	52.75
227	J11	25.13	12.57	0.89	42.11	68.91	55.99
228	J12	28.88	15.83	1.01	46.75	64.06	62.09
229	J13	34.47	21.55	1.19	53.55	55.09	71.29
230	J14	40.75	28.88	1.38	60.67	44.72	81.10
231	J15	47.31	37.29	1.59	67.50	34.46	90.34
232	J16	55.37	48.44	1.81	75.10	22.94	101.10
233	J17	63.02	59.64	2.06	81.64	13.04	109.90
234	J18	65.41	63.17	2.11	83.53	10.31	112.69
235	J19	22.80	10.70	1.89	39.07	71.82	38.19
236	J20	25.63	12.79	2.36	42.45	69.56	39.59
237	J21	29.38	16.12	2.67	47.13	64.34	45.12
238	J22	34.83	21.91	2.97	53.93	54.69	54.51
239	J23	40.99	29.36	3.27	61.10	43.65	64.71
240	J24	47.85	38.59	3.47	68.45	31.84	76.06
241	K1	56.62	51.15	3.79	76.77	18.84	88.32
242	K2	64.78	63.82	4.03	83.87	7.43	99.06
243	K3	67.63	68.23	3.95	86.12	4.09	103.42
244	K4	1.75	1.01	4.83	9.06	23.47	-34.43
245	K5	2.28	1.75	6.38	14.13	13.57	-33.26
246	K6	2.90	2.99	7.78	19.99	0.37	-28.97
247	K7	3.37	4.56	8.56	25.43	-15.17	-22.54
248	K8	3.77	6.19	8.88	29.88	-28.05	-16.05
249	K9	4.07	7.71	8.92	33.38	-38.70	-10.14
250	K10	4.37	9.23	8.86	36.43	-47.75	-4.69
251	K11	4.59	10.47	8.73	38.68	-54.41	-0.33
252	K12	4.62	10.80	8.52	39.24	-56.54	1.41
253	K13	2.21	1.07	6.92	9.54	31.91	-43.51
254	K14	2.86	1.86	9.00	14.76	22.12	-42.53
255	K15	3.55	3.08	10.97	20.37	9.62	-39.38
256	K16	4.30	4.92	12.73	26.50	-5.91	-34.02
257	K17	4.90	6.81	13.85	31.36	-18.92	-28.68
258	K18	5.34	8.58	14.43	35.16	-29.89	-23.64
259	K19	5.76	10.41	14.71	38.56	-39.77	-18.51
260	K20	5.87	11.61	14.29	40.59	-47.18	-13.93
261	K21	5.83	11.91	13.74	41.06	-49.68	-11.64
262	K22	2.78	1.23	9.09	10.74	38.11	-49.79
263	K23	3.64	2.19	11.93	16.44	27.85	-49.06
264	K24	4.54	3.61	14.68	22.33	15.34	-46.41
265	L1	5.55	5.62	17.55	28.43	1.58	-42.80
266	L2	6.29	7.68	19.38	33.31	-11.29	-38.40
267	L3	6.84	9.56	20.57	37.03	-21.63	-34.45
268	L4	7.22	11.32	21.08	40.11	-31.13	-30.18
269	L5	7.35	12.60	20.88	42.15	-38.61	-26.26
270	L6	7.34	12.92	20.55	42.64	-40.88	-24.74
271	L7	2.10	1.21	4.69	10.64	24.77	-30.98
272	L8	2.71	2.09	6.31	15.95	14.26	-29.79
273	L9	3.42	3.48	7.83	21.87	1.06	-25.94
274	L10	4.24	5.59	9.15	28.36	-14.77	-19.60
275	L11	4.92	7.82	9.85	33.60	-28.31	-12.98
276	L12	5.40	9.73	10.12	37.35	-38.68	-7.39
277	L13	5.82	11.58	10.17	40.54	-47.55	-2.04
278	L14	6.05	12.90	9.90	42.61	-53.96	2.39
279	L15	6.06	13.20	9.63	43.06	-55.73	4.09
280	L16	2.69	1.32	7.16	11.43	33.43	-41.27
281	L17	3.52	2.33	9.60	17.12	23.08	-40.56
282	L18	4.47	3.92	11.99	23.40	9.72	-37.23
283	L19	5.71	6.53	14.69	30.71	-6.44	-31.99
284	L20	6.47	8.81	15.95	35.61	-19.28	-26.66
285	L21	7.07	10.96	16.64	39.51	-29.98	-21.58
286	L22	7.53	13.00	16.81	42.77	-39.60	-16.36
287	L23	7.84	14.57	16.77	45.04	-46.45	-12.38
288	L24	7.80	14.94	16.19	45.55	-49.12	-10.10
289	M1	3.53	1.57	9.91	13.06	40.73	-48.57
290	M2	4.44	2.64	12.81	18.53	30.37	-47.98
291	M3	5.56	4.40	15.96	24.94	16.73	-45.09
292	M4	6.89	7.10	19.35	32.03	0.49	-40.52
293	M5	7.95	9.71	21.82	37.31	-12.21	-36.46
294	M6	8.70	12.01	23.39	41.23	-22.43	-32.71
295	M7	9.09	13.94	23.86	44.15	-31.71	-28.57
296	M8	9.29	15.41	23.64	46.19	-38.89	-24.63
297	M9	9.25	15.83	23.18	46.75	-41.59	-22.82
298	M10	3.18	1.78	4.58	14.27	29.90	-24.11
299	M11	3.96	2.83	6.35	19.33	20.13	-24.18
300	M12	4.90	4.58	7.98	25.51	6.32	-20.22
301	M13	6.16	7.49	9.57	32.91	-10.97	-13.21
302	M14	7.22	10.47	10.50	38.67	-24.97	-6.33
303	M15	7.97	13.04	10.99	42.83	-35.75	-0.73
304	M16	8.64	15.60	11.09	46.44	-45.44	5.20
305	M17	9.17	17.55	11.12	48.94	-51.67	9.44
306	M18	9.32	18.12	10.99	49.64	-53.45	11.02
307	M19	4.09	2.02	7.65	15.61	38.19	-36.04
308	M20	5.03	3.19	10.23	20.77	28.33	-36.34
309	M21	6.25	5.20	12.78	27.28	14.26	-32.80
310	M22	7.90	8.56	15.66	35.12	-3.16	-26.79
311	M23	9.28	11.94	17.70	41.13	-17.08	-21.23
312	M24	10.18	14.94	18.65	45.55	-28.99	-15.71
313	N1	11.20	18.13	19.33	49.66	-39.06	-10.11
314	N2	11.60	20.03	19.19	51.87	-45.73	-5.98
315	N3	11.45	20.35	18.49	52.23	-48.28	-3.87
316	N4	4.81	2.16	10.15	16.31	44.81	-43.78
317	N5	6.00	3.47	13.65	21.82	35.13	-44.60
318	N6	7.55	5.74	17.46	28.75	21.01	-42.03
319	N7	9.31	9.15	21.36	36.27	4.06	-37.37
320	N8	10.88	12.73	24.47	42.36	-9.94	-32.77
321	N9	12.01	15.86	26.54	46.79	-20.93	-28.78
322	N10	12.82	18.81	27.62	50.46	-31.29	-24.28
323	N11	13.34	21.02	27.81	52.97	-38.72	-20.28
324	N12	13.41	21.63	27.51	53.63	-41.09	-18.64
325	N13	5.71	3.02	4.53	20.11	39.25	-13.74
326	N14	6.50	4.14	6.13	24.13	30.51	-14.90
327	N15	7.76	6.25	7.76	30.04	17.38	-11.59
328	N16	9.58	10.02	9.38	37.88	-0.67	-3.99
329	N17	11.36	14.28	10.47	44.63	-16.26	4.04
330	N18	12.94	18.43	11.19	50.01	-28.55	11.06
331	N19	14.35	22.61	11.63	54.66	-39.60	17.73
332	N20	15.06	25.21	11.50	57.28	-46.60	22.63
333	N21	14.98	25.55	11.06	57.61	-48.47	24.57
334	N22	6.63	3.24	7.60	20.97	45.45	-26.58
335	N23	7.75	4.59	10.28	25.54	36.75	-28.28
336	N24	9.15	6.91	12.88	31.60	22.87	-25.62
337	O1	11.48	11.02	15.90	39.62	6.28	-19.63
338	O2	13.70	15.86	18.32	46.79	-9.72	-12.85
339	O3	15.22	20.19	19.48	52.05	-23.08	-6.29
340	O4	16.39	24.31	19.95	56.40	-35.08	0.21
341	O5	17.36	27.54	20.22	59.47	-42.97	4.96
342	O6	17.45	28.24	19.71	60.11	-45.24	7.10
343	O7	7.43	3.38	10.33	21.51	51.14	-35.38
344	O8	8.64	4.73	13.70	25.95	42.98	-37.62
345	O9	10.55	7.30	17.67	32.49	30.11	-36.06
346	O10	13.13	11.76	22.33	40.83	12.26	-31.38
347	O11	15.69	16.91	26.41	48.14	-3.52	-26.22
348	O12	17.56	21.53	29.09	53.52	-16.28	-21.43
349	O13	18.84	25.85	30.56	57.89	-28.36	-16.24
350	O14	19.77	29.18	30.98	60.94	-36.81	-11.63
351	O15	19.65	29.79	30.46	61.47	-39.65	-9.92
352	O16	9.12	4.62	4.42	25.61	48.44	-3.67
353	O17	10.05	5.87	5.97	29.09	40.94	-5.61
354	O18	11.79	8.40	7.48	34.80	29.19	-2.27
355	O19	14.52	13.16	9.09	43.00	11.67	5.85
356	O20	16.77	18.25	10.02	49.80	-4.52	14.41
357	O21	18.70	23.31	10.43	55.39	-18.30	22.71
358	O22	20.50	28.61	10.71	60.44	-31.03	30.50
359	O23	21.89	32.63	10.84	63.86	-39.21	36.02
360	O24	21.98	33.51	10.45	64.57	-41.86	38.45
361	P1	10.14	4.86	7.58	26.33	53.57	-17.29
362	P2	11.46	6.33	10.17	30.23	46.55	-19.83
363	P3	13.30	8.97	12.70	35.93	34.51	-17.66
364	P4	16.06	13.81	15.49	43.95	16.69	-11.16
365	P5	18.83	19.63	17.91	51.42	-0.51	-3.97
366	P6	21.39	25.72	19.51	57.77	-15.28	3.50
367	P7	22.93	31.06	19.89	62.56	-28.86	10.96
368	P8	24.21	35.37	19.80	66.04	-38.15	17.14
369	P9	24.20	36.22	19.25	66.69	-41.01	19.42
370	P10	10.64	4.85	10.28	26.30	57.50	-26.97
371	P11	12.18	6.39	13.78	30.38	50.99	-30.17
372	P12	14.41	9.21	17.66	36.38	39.60	-29.33
373	P13	17.68	14.36	22.38	44.75	22.19	-24.72
374	P14	20.96	20.62	26.63	52.53	5.26	-19.06
375	P15	23.63	26.76	29.85	58.75	-9.33	-13.63
376	P16	25.84	33.04	31.85	64.19	-23.29	-7.37
377	P17	27.26	37.78	32.56	67.86	-33.30	-2.12
378	P18	27.49	38.99	32.33	68.75	-36.22	-0.25
379	P19	13.64	6.68	4.52	31.07	57.62	5.22
380	P20	14.64	8.02	5.87	34.02	51.14	3.35
381	P21	16.56	10.70	7.15	39.07	40.57	6.45
382	P22	19.56	15.62	8.29	46.47	24.50	14.74
383	P23	22.85	21.84	9.16	53.86	8.31	24.30
384	P24	26.05	28.77	9.43	60.57	-6.81	34.95
385	Q1	29.86	36.98	10.13	67.26	-20.60	44.15
386	Q2	31.85	42.53	10.39	71.23	-30.36	50.14
387	Q3	31.90	43.58	10.16	71.95	-33.28	52.11
388	Q4	14.36	6.75	7.66	31.22	61.48	-9.15
389	Q5	15.89	8.37	10.16	34.74	55.43	-12.04
390	Q6	18.44	11.48	12.73	40.38	45.06	-10.06
391	Q7	21.58	16.66	15.20	47.84	28.44	-3.74
392	Q8	24.92	23.17	17.12	55.25	11.40	4.42
393	Q9	27.88	30.15	18.33	61.79	-4.66	12.98
394	Q10	30.75	37.88	18.95	67.94	-20.16	22.22
395	Q11	33.15	44.48	19.08	72.55	-31.40	29.89
396	Q12	33.40	45.93	18.80	73.50	-34.62	32.15
397	Q13	14.94	6.78	10.47	31.30	64.66	-18.95
398	Q14	16.69	8.45	13.82	34.90	59.22	-22.48
399	Q15	19.35	11.50	17.64	40.40	49.61	-22.36
400	Q16	23.44	17.33	22.35	48.67	33.31	-17.91
401	Q17	27.50	24.49	26.61	56.57	16.32	-12.03
402	Q18	31.28	32.43	29.98	63.70	0.03	-5.32
403	Q19	34.98	41.49	32.65	70.51	-16.32	2.32
404	Q20	37.04	48.03	33.40	74.85	-28.09	8.67
405	Q21	37.04	49.34	32.84	75.66	-31.61	10.91
406	Q22	18.53	8.82	4.46	35.63	65.96	13.39
407	Q23	20.45	10.65	5.83	38.98	61.17	12.12
408	Q24	23.20	13.74	6.85	43.86	52.97	15.95
409	R1	27.43	19.26	8.08	50.99	40.09	23.32
410	R2	31.60	26.45	8.88	58.46	23.76	33.25
411	R3	35.57	34.42	9.14	65.29	8.20	44.11
412	R4	40.20	44.33	9.42	72.45	-7.72	55.47
413	R5	44.06	52.96	9.58	77.85	-19.40	64.23
414	R6	44.89	55.01	9.35	79.05	-22.18	67.07
415	R7	19.23	8.87	7.53	35.73	69.18	-0.86
416	R8	21.30	10.74	9.80	39.14	64.57	-3.26
417	R9	24.28	13.99	11.99	44.21	56.19	-1.33
418	R10	28.50	19.76	14.31	51.56	41.84	4.95
419	R11	32.92	27.19	16.07	59.15	25.53	13.62
420	R12	36.64	35.08	16.83	65.81	9.53	23.30
421	R13	41.32	45.65	17.48	73.32	-8.03	34.76
422	R14	45.11	55.04	17.49	79.06	-21.59	44.65
423	R15	45.50	57.16	17.13	80.27	-25.69	47.56
424	R16	19.85	8.91	10.44	35.82	71.86	-11.06
425	R17	22.28	10.96	13.80	39.51	67.55	-14.50
426	R18	25.80	14.49	17.50	44.93	59.57	-14.24
427	R19	31.04	21.04	22.07	52.99	45.30	-9.91
428	R20	35.64	28.66	25.69	60.48	29.21	-3.72
429	R21	39.77	37.14	28.10	67.38	12.79	4.09
430	R22	44.21	47.79	29.82	74.69	-5.37	13.90
431	R23	48.35	58.01	30.73	80.75	-19.77	22.90
432	R24	49.54	61.49	30.37	82.64	-24.72	26.73
433	S1	22.21	10.33	4.44	38.42	71.92	18.31
434	S2	24.99	12.52	5.72	42.02	68.68	17.89
435	S3	28.39	15.86	6.58	46.78	62.03	22.15
436	S4	33.49	21.83	7.51	53.85	50.40	30.46
437	S5	39.06	29.54	8.11	61.26	36.95	40.89
438	S6	45.06	38.82	8.45	68.62	23.27	52.30
439	S7	51.43	50.00	8.46	76.07	8.64	65.13
440	S8	57.40	61.41	8.32	82.60	-4.38	76.92
441	S9	58.62	64.43	8.06	84.19	-8.27	80.60
442	S10	22.65	10.31	7.07	38.39	74.05	5.59
443	S11	25.62	12.53	9.20	42.05	71.22	3.83
444	S12	29.64	16.17	11.33	47.20	65.03	5.78
445	S13	34.95	22.33	13.31	54.38	53.14	12.47
446	S14	40.42	30.10	14.66	61.74	39.14	21.58
447	S15	45.71	38.98	15.38	68.74	24.61	31.83
448	S16	52.15	50.98	15.46	76.67	7.93	45.31
449	S17	58.77	64.30	15.59	84.12	-7.62	57.86
450	S18	60.47	68.31	15.39	86.16	-12.36	61.85
451	S19	23.72	10.57	10.25	38.84	76.92	-5.24
452	S20	27.09	12.99	13.33	42.74	74.28	-7.66
453	S21	31.39	16.84	16.66	48.06	67.84	-6.90
454	S22	37.33	23.46	20.49	55.54	56.05	-2.38
455	S23	43.32	31.69	23.73	63.09	42.06	4.32
456	S24	49.44	41.43	26.24	70.48	27.43	12.57
457	T1	57.71	54.62	28.16	78.82	12.66	23.71
458	T2	64.70	69.58	28.08	86.79	-5.32	37.58
459	T3	66.96	75.71	27.20	89.72	-12.94	44.11
460	T4	23.49	10.84	4.09	39.32	73.86	21.92
461	T5	26.87	13.26	5.40	43.15	71.67	21.38
462	T6	31.04	16.93	6.44	48.17	66.07	25.16
463	T7	36.54	22.89	7.15	54.96	55.99	33.82
464	T8	42.44	30.37	7.44	61.97	44.28	44.75
465	T9	49.02	39.67	7.80	69.24	31.67	55.84
466	T10	57.17	52.18	7.88	77.39	17.52	69.58
467	T11	66.30	67.15	8.05	85.58	3.48	83.06
468	T12	69.68	72.74	7.99	88.33	-0.98	88.02
469	T13	24.42	11.02	7.21	39.62	76.58	7.13
470	T14	27.86	13.42	9.19	43.40	74.52	6.17
471	T15	32.34	17.26	11.36	48.58	69.04	8.07
472	T16	38.26	23.58	13.20	55.67	58.50	14.99
473	T17	44.63	31.73	14.64	63.12	45.73	24.01
474	T18	51.42	41.72	15.55	70.68	31.86	34.77
475	T19	59.52	54.97	15.68	79.02	16.15	48.83
476	T20	68.55	70.99	15.48	87.48	0.22	63.92
477	T21	72.01	77.15	14.67	90.39	-4.95	70.95
478	T22	25.37	11.23	10.42	39.96	79.22	-3.87
479	T23	29.42	13.96	13.66	44.17	77.28	-6.10
480	T24	34.45	18.14	17.34	49.67	71.76	-5.70
481	U1	40.28	24.19	20.90	56.28	62.22	-1.94
482	U2	47.07	32.79	23.92	63.99	48.90	5.53
483	U3	53.82	42.82	25.77	71.43	34.84	15.03
484	U4	61.38	55.83	26.39	79.52	18.41	27.89
485	U5	70.64	73.40	26.49	88.64	-0.27	43.46
486	U6	74.47	81.15	25.72	92.20	-7.62	50.93
487	U7	3.24	1.31	10.82	11.31	43.63	-54.54
488	U8	4.15	2.30	13.89	16.98	33.16	-53.58
489	U9	5.20	3.83	17.17	23.09	20.36	-51.14
490	U10	6.34	6.02	20.61	29.45	5.85	-47.61
491	U11	7.35	8.30	23.50	34.60	-6.11	-44.35
492	U12	8.08	10.30	25.51	38.38	-15.55	-41.48
493	U13	8.60	12.10	26.79	41.38	-23.88	-38.56
494	U14	8.84	13.46	27.04	43.45	-30.78	-35.40
495	U15	8.75	13.81	26.46	43.95	-33.71	-33.55
496	U16	3.47	1.35	11.86	11.59	46.07	-57.21
497	U17	4.45	2.38	15.17	17.37	35.45	-56.19
498	U18	5.61	4.03	18.91	23.77	22.37	-53.83
499	U19	6.91	6.35	22.89	30.28	8.15	-50.65
500	U20	8.01	8.65	26.20	35.29	-2.94	-48.01
501	U21	8.85	10.71	28.77	39.09	-11.89	-45.81
502	U22	9.63	12.71	31.05	42.32	-19.42	-43.85
503	U23	10.16	14.21	32.56	44.54	-24.79	-42.33
504	U24	10.31	14.75	32.92	45.29	-26.84	-41.59
505	V1	3.64	1.39	12.51	11.86	47.56	-58.61
506	V2	4.63	2.45	15.90	17.67	36.60	-57.47
507	V3	5.75	4.07	19.58	23.89	23.44	-55.05
508	V4	7.06	6.39	23.72	30.38	9.24	-52.05
509	V5	8.25	8.85	27.35	35.69	-2.42	-49.32
510	V6	9.21	11.04	30.38	39.66	-11.36	-47.40
511	V7	9.91	12.87	32.62	42.57	-18.26	-45.82
512	V8	10.43	14.24	34.29	44.57	-22.89	-44.82
513	V9	10.54	14.61	34.69	45.10	-24.28	-44.50
514	V10	3.87	1.57	11.53	13.06	45.86	-53.70
515	V11	4.98	2.78	15.09	19.13	34.80	-52.96
516	V12	6.26	4.63	18.85	25.67	21.38	-50.43
517	V13	7.81	7.47	23.14	32.86	5.77	-46.68
518	V14	9.06	10.23	26.38	38.24	-6.49	-43.25
519	V15	10.00	12.66	28.85	42.25	-16.18	-40.47
520	V16	10.73	14.94	30.54	45.55	-24.84	-37.49
521	V17	11.19	16.68	31.26	47.85	-31.34	-34.64
522	V18	11.22	17.20	30.89	48.51	-33.98	-32.93
523	V19	4.34	1.72	13.07	13.94	48.75	-56.61
524	V20	5.45	2.94	16.78	19.80	37.60	-55.89
525	V21	6.87	4.93	20.96	26.53	23.97	-53.36
526	V22	8.69	8.07	26.04	34.12	8.16	-49.77
527	V23	10.19	11.09	30.16	39.73	-3.80	-46.92
528	V24	11.38	13.87	33.57	44.04	-13.51	-44.69
529	W1	12.16	15.97	35.97	46.93	-20.53	-43.17
530	W2	12.75	17.63	37.43	49.05	-25.67	-41.53
531	W3	12.79	18.07	37.52	49.59	-27.67	-40.73
532	W4	4.36	1.68	13.35	13.72	50.04	-57.75
533	W5	5.57	2.97	17.34	19.91	38.50	-57.01
534	W6	7.07	5.06	21.83	26.91	24.33	-54.43
535	W7	8.73	8.00	26.68	33.99	9.08	-51.09
536	W8	10.15	10.89	30.74	39.40	-2.73	-48.41
537	W9	11.28	13.49	34.03	43.49	-11.91	-46.31
538	W10	12.23	15.87	36.84	46.81	-19.49	-44.58
539	W11	12.89	17.56	38.73	48.96	-24.32	-43.45
540	W12	13.12	18.11	39.37	49.62	-25.72	-43.15
541	W13	5.31	2.21	12.35	16.55	49.93	-50.07
542	W14	6.59	3.54	16.16	22.10	40.22	-50.48
543	W15	8.30	5.90	20.71	29.15	26.18	-48.31
544	W16	10.55	9.70	26.02	37.29	9.40	-44.25
545	W17	12.58	13.71	30.59	43.82	-4.23	-40.57
546	W18	14.21	17.43	34.14	48.79	-15.15	-37.33
547	W19	15.48	20.85	36.63	52.79	-24.73	-33.98
548	W20	15.98	22.98	37.14	55.05	-31.60	-30.80
549	W21	15.94	23.52	36.44	55.61	-34.26	-28.86
550	W22	5.93	2.40	14.05	17.47	53.11	-53.15
551	W23	7.46	3.95	18.56	23.50	42.82	-53.53
552	W24	9.43	6.61	23.87	30.90	28.23	-51.42
553	X1	11.42	9.99	29.03	37.82	13.54	-48.42
554	X2	13.72	14.33	34.44	44.70	-0.63	-44.82
555	X3	15.31	17.99	38.39	49.48	-11.47	-42.09
556	X4	16.47	21.15	41.48	53.11	-20.47	-39.88
557	X5	17.45	23.64	43.65	55.73	-26.37	-38.09
558	X6	17.67	24.37	44.03	56.46	-28.32	-37.31
559	X7	5.89	2.33	14.44	17.15	54.05	-54.72
560	X8	7.26	3.74	18.69	22.81	43.82	-55.02
561	X9	9.09	6.19	23.77	29.90	29.77	-52.96
562	X10	11.50	10.09	29.92	38.01	13.30	-49.51
563	X11	13.81	14.40	35.55	44.80	-0.48	-46.23
564	X12	15.49	18.06	39.78	49.57	-10.81	-43.79
565	X13	16.90	21.48	43.40	53.47	-19.64	-41.68
566	X14	17.82	23.78	45.66	55.86	-24.94	-40.31
567	X15	18.06	24.43	46.29	56.52	-26.51	-39.94
568	X16	8.04	3.44	12.86	21.74	55.74	-42.59
569	X17	9.49	4.90	16.93	26.45	47.83	-44.78
570	X18	11.80	7.75	21.99	33.45	35.08	-43.47
571	X19	15.06	12.72	28.45	42.33	17.80	-39.68
572	X20	17.81	17.93	33.79	49.41	2.82	-35.76
573	X21	20.04	22.88	37.95	54.95	-9.64	-32.07
574	X22	21.89	27.77	41.22	59.68	-21.17	-28.22
575	X23	23.16	31.44	42.80	62.88	-29.19	-24.71
576	X24	23.16	32.33	42.54	63.61	-32.37	-23.12
577	Y1	8.47	3.51	14.73	21.97	58.61	-47.16
578	Y2	10.20	5.12	19.18	27.07	50.86	-48.72
579	Y3	12.55	7.99	24.74	33.97	38.00	-47.72
580	Y4	15.88	13.02	32.04	42.80	20.61	-44.54
581	Y5	19.18	18.80	38.80	50.45	5.42	-40.96
582	Y6	21.94	24.39	44.46	56.48	-7.16	-37.80
583	Y7	23.80	29.11	48.53	60.88	-17.73	-35.03
584	Y8	25.05	32.51	51.05	63.76	-24.74	-32.91
585	Y9	25.20	33.38	51.33	64.47	-27.18	-32.01
586	Y10	8.60	3.52	15.22	22.00	59.61	-48.32
587	Y11	10.23	5.08	19.82	26.95	51.59	-50.30
588	Y12	12.64	7.94	25.60	33.86	39.07	-49.44
589	Y13	16.12	13.07	33.33	42.87	21.68	-46.36
590	Y14	19.37	18.76	40.28	50.41	6.58	-42.99
591	Y15	21.91	24.07	45.92	56.16	-5.92	-40.10
592	Y16	24.23	29.36	50.84	61.10	-16.80	-37.27
593	Y17	25.67	32.86	53.79	64.05	-23.39	-35.42
594	Y18	26.28	34.12	54.78	65.06	-25.21	-34.74
595	Y19	11.75	5.13	13.32	27.11	62.08	-34.58
596	Y20	13.26	6.63	17.34	30.95	55.72	-37.95
597	Y21	15.77	9.60	22.35	37.12	44.47	-37.83
598	Y22	19.74	15.23	29.20	45.94	27.70	-34.67
599	Y23	23.65	21.88	35.59	53.90	11.69	-30.62
600	Y24	27.25	29.16	41.57	60.92	-3.45	-26.54
601	Z1	29.38	35.34	44.94	66.01	-17.03	-21.95
602	Z2	31.15	40.36	46.19	69.73	-26.44	-17.04
603	Z3	31.02	41.52	45.15	70.54	-30.40	-14.39
604	Z4	11.86	5.01	15.04	26.78	64.30	-39.65
605	Z5	13.75	6.70	19.68	31.12	58.12	-42.80
606	Z6	16.79	10.00	25.82	37.84	47.13	-42.97
607	Z7	20.89	15.70	33.75	46.58	30.56	-40.58
608	Z8	24.77	22.29	41.16	54.33	14.68	-37.37
609	Z9	28.42	29.28	47.80	61.03	0.73	-33.93
610	Z10	31.58	36.47	53.50	66.88	-12.55	-30.23
611	Z11	33.79	41.87	56.98	70.78	-21.54	-27.17
612	Z12	34.27	43.46	57.56	71.86	-24.53	-25.91
613	Z13	12.08	5.07	15.80	26.93	65.19	-41.27
614	Z14	13.74	6.60	20.37	30.89	59.06	-44.64
615	Z15	16.60	9.74	26.55	37.38	48.10	-45.03
616	Z16	21.23	15.83	35.41	46.76	31.44	-42.67
617	Z17	25.56	22.90	43.69	54.97	15.29	-39.45
618	Z18	29.74	30.64	51.27	62.20	0.77	-35.86
619	Z19	33.26	38.26	57.51	68.21	-12.30	-32.16
620	Z20	35.11	42.98	60.96	71.54	-20.27	-29.89
621	Z21	35.49	44.21	61.77	72.37	-22.56	-29.26
622	Z22	15.83	6.94	13.59	31.67	68.30	-27.46
623	Z23	17.89	8.75	17.76	35.50	63.21	-31.08
624	Z24	21.33	12.29	23.39	41.67	53.82	-31.96
625	2A1	24.96	17.39	28.91	48.75	39.55	-29.37
626	2A2	29.59	25.02	35.39	57.09	22.22	-24.82
627	2A3	33.52	33.00	40.69	64.16	6.06	-19.82
628	2A4	37.09	41.83	45.17	70.75	-10.29	-14.05
629	2A5	40.05	49.59	47.41	75.82	-22.70	-7.98
630	2A6	40.65	51.89	47.38	77.21	-26.86	-5.53
631	2A7	15.78	6.73	15.25	31.19	70.09	-32.57
632	2A8	17.68	8.37	19.69	34.75	65.29	-36.57
633	2A9	20.99	11.68	25.64	40.71	56.36	-37.71
634	2A10	25.94	17.77	33.87	49.22	41.67	-36.20
635	2A11	31.23	25.71	42.42	57.76	25.46	-33.07
636	2A12	35.95	34.19	49.94	65.11	10.25	-29.34
637	2A13	40.53	44.00	57.03	72.23	-5.75	-24.73
638	2A14	43.84	51.83	61.45	77.18	-17.15	-20.65
639	2A15	44.20	53.81	62.19	78.35	-21.16	-19.35
640	2A16	15.96	6.75	16.12	31.24	70.94	-34.63
641	2A17	18.03	8.51	20.89	35.03	65.97	-38.57
642	2A18	21.84	12.18	27.60	41.51	56.90	-39.69
643	2A19	27.31	18.80	36.77	50.45	41.95	-38.21
644	2A20	32.35	26.52	45.63	58.53	26.18	-35.68
645	2A21	37.42	35.46	54.04	66.11	10.78	-32.13
646	2A22	42.13	45.40	61.78	73.15	-4.87	-27.92
647	2A23	45.96	53.43	66.76	78.13	-15.14	-24.09
648	2A24	47.70	56.67	68.57	79.99	-18.32	-22.55
649	2B1	20.23	8.81	13.22	35.61	74.67	-19.65
650	2B2	22.53	10.66	17.06	39.00	70.92	-23.46
651	2B3	26.10	14.09	21.97	44.36	63.26	-24.61
652	2B4	31.22	20.26	28.47	52.13	49.67	-22.83
653	2B5	37.13	28.69	35.08	60.51	33.99	-18.50
654	2B6	42.62	38.32	41.03	68.25	17.71	-13.20
655	2B7	47.38	49.25	45.67	75.61	-0.31	-6.28
656	2B8	51.54	60.02	48.05	81.85	-16.00	1.68
657	2B9	52.16	63.28	47.68	83.59	-21.85	5.10
658	2B10	20.41	8.71	15.30	35.42	76.37	-25.40
659	2B11	23.03	10.67	19.79	39.02	73.06	-29.42
660	2B12	26.98	14.22	25.71	44.54	66.06	-31.21
661	2B13	33.15	21.00	34.35	52.95	53.08	-30.47
662	2B14	39.39	29.53	43.11	61.25	38.02	-27.91
663	2B15	45.37	39.50	51.56	69.11	22.02	-24.26
664	2B16	51.58	51.89	59.60	77.22	4.10	-18.75
665	2B17	56.90	63.57	65.44	83.74	-10.51	-13.18
666	2B18	58.40	67.39	66.86	85.70	-15.33	-11.13
667	2B19	21.08	8.98	16.51	35.94	77.36	-27.44
668	2B20	23.77	11.02	21.32	39.61	73.83	-31.51
669	2B21	27.92	14.74	27.75	45.28	66.64	-33.45
670	2B22	34.28	21.77	37.25	53.79	53.42	-33.12
671	2B23	41.15	30.86	47.03	62.39	38.56	-30.69
672	2B24	48.37	42.24	57.07	71.04	22.12	-26.83
673	2C1	54.40	54.24	65.59	78.60	5.40	-22.18
674	2C2	58.75	64.60	71.40	84.28	-8.34	-17.71
675	2C3	60.35	68.53	73.22	86.27	-13.11	-15.88
676	2C4	24.76	10.69	13.35	39.06	80.49	-14.07
677	2C5	28.49	13.22	17.39	43.09	78.34	-17.14
678	2C6	33.46	17.32	22.54	48.67	72.64	-18.28
679	2C7	39.89	24.13	28.73	56.22	61.28	-16.20
680	2C8	46.24	32.50	34.51	63.75	47.62	-12.08
681	2C9	52.87	42.63	39.79	71.30	32.93	-6.33
682	2C10	59.85	55.91	43.83	79.56	14.59	2.78
683	2C11	66.96	71.97	45.93	87.95	-5.30	14.70
684	2C12	68.48	77.54	45.27	90.57	-13.24	20.00
685	2C13	25.24	10.74	15.51	39.14	82.16	-19.50
686	2C14	28.82	13.11	19.87	42.93	80.28	-22.84
687	2C15	33.92	17.17	25.88	48.47	75.06	-24.73
688	2C16	41.27	24.38	34.28	56.47	64.45	-24.30
689	2C17	49.18	33.83	43.29	64.83	51.09	-21.96
690	2C18	57.18	45.24	52.01	73.05	36.25	-17.96
691	2C19	66.31	60.80	60.93	82.27	17.76	-11.36
692	2C20	73.74	76.69	66.96	90.18	-0.43	-3.50
693	2C21	75.53	82.23	68.37	92.68	-7.52	-0.49
694	2C22	25.74	10.93	16.65	39.46	82.88	-21.70
695	2C23	29.73	13.57	21.55	43.60	80.89	-25.10
696	2C24	35.28	17.94	28.12	49.42	75.63	-26.92
697	2D1	42.34	24.74	36.60	56.82	66.17	-26.99
698	2D2	50.42	34.47	46.78	65.34	52.24	-25.31
699	2D3	58.36	45.76	56.49	73.39	37.64	-22.16
700	2D4	67.47	61.00	66.92	82.38	19.87	-16.91
701	2D5	76.51	78.25	75.43	90.90	2.15	-9.82
702	2D6	79.73	84.76	77.92	93.78	-3.88	-6.96
703	2D7	25.96	11.20	13.48	39.92	81.81	-12.94
704	2D8	29.83	13.70	17.14	43.81	80.37	-15.34
705	2D9	35.04	17.78	21.96	49.23	75.65	-16.19
706	2D10	42.12	24.63	27.96	56.71	65.96	-14.08
707	2D11	49.65	33.53	33.89	64.59	53.40	-9.73
708	2D12	56.85	43.59	38.60	71.96	40.14	-3.63
709	2D13	65.36	57.68	42.19	80.56	23.02	6.55
710	2D14	74.66	76.06	43.35	89.89	2.71	21.17
711	2D15	78.79	85.39	41.93	94.05	-6.92	30.13
712	2D16	26.51	11.26	15.49	40.02	83.67	-17.94
713	2D17	30.71	13.91	19.94	44.11	82.37	-20.95
714	2D18	36.39	18.23	25.98	49.78	77.83	-22.68
715	2D19	44.39	25.71	34.36	57.76	68.14	-22.19
716	2D20	52.29	34.62	42.40	65.45	56.67	-19.78
717	2D21	60.44	45.33	50.13	73.11	43.81	-15.77
718	2D22	69.92	60.14	57.97	81.91	27.16	-8.99
719	2D23	80.18	79.12	64.49	91.29	7.73	0.73
720	2D24	85.01	89.67	65.94	95.86	-2.72	7.25
721	2E1	26.87	11.35	16.52	40.17	84.52	-20.18
722	2E2	31.19	14.08	21.25	44.35	83.09	-23.20
723	2E3	37.01	18.50	27.65	50.09	78.48	-24.98
724	2E4	45.09	25.98	36.77	58.02	69.05	-25.16
725	2E5	53.87	35.76	46.56	66.34	56.92	-23.32
726	2E6	63.00	47.58	56.47	74.56	43.51	-20.12
727	2E7	72.89	62.59	66.34	83.22	27.79	-14.91
728	2E8	83.44	81.56	75.77	92.38	9.32	-7.55
729	2E9	88.12	91.13	79.35	96.46	0.47	-3.53
730	2E10	1.11	1.09	1.04	9.70	2.16	-2.18
731	2E11	1.78	1.76	1.73	14.20	1.86	-3.11
732	2E12	2.68	2.68	2.68	18.71	1.77	-3.96
733	2E13	4.18	4.21	4.22	24.34	1.70	-4.67
734	2E14	6.42	6.51	6.41	30.66	1.52	-4.91
735	2E15	9.58	9.74	9.60	37.36	1.55	-5.64
736	2E16	13.34	13.61	13.12	43.66	1.40	-5.49
737	2E17	17.92	18.33	17.57	49.89	1.33	-5.83
738	2E18	23.40	23.83	22.86	55.92	1.89	-6.39
739	2E19	30.25	30.77	29.43	62.31	2.20	-6.83
740	2E20	37.35	38.10	36.28	68.09	2.01	-7.11
741	2E21	47.07	48.01	44.87	74.83	2.18	-6.65
742	2E22	59.14	60.32	54.54	82.01	2.36	-5.25
743	2E23	72.93	74.51	65.40	89.16	2.28	-3.80
744	2E24	84.27	86.31	75.71	94.44	2.00	-3.94
745	2F1	85.19	87.47	76.44	94.94	1.60	-3.72
746	2F2	79.80	81.62	71.50	92.41	2.18	-3.78
747	2F3	57.56	59.07	53.33	81.33	1.47	-5.13
748	2F4	0.79	0.73	0.60	6.63	3.53	0.13
749	2F5	0.77	0.81	0.66	7.33	-0.68	0.10
750	2F6	0.74	0.69	0.76	6.20	3.07	-3.61
751	2F7	0.96	0.84	0.59	7.57	5.94	1.88
752	2F8	0.84	0.97	0.72	8.74	-3.94	1.53
753	2F9	0.73	0.66	0.88	5.93	3.98	-6.27
754	2F10	1.53	1.14	0.53	10.09	13.12	7.38
755	2F11	1.09	1.55	0.87	12.93	-12.52	6.01
756	2F12	0.95	0.77	1.66	6.92	8.56	-14.84
757	2F13	1.27	1.14	0.87	10.13	5.37	1.14
758	2F14	1.93	1.78	1.39	14.28	5.18	0.89
759	2F15	3.01	2.79	2.24	19.18	5.86	0.51
760	2F16	4.89	4.53	3.64	25.36	6.78	0.64
761	2F17	7.60	7.13	5.77	32.09	7.09	0.53
762	2F18	11.18	10.63	8.78	38.94	7.02	-0.05
763	2F19	15.56	14.93	12.43	45.54	6.95	-0.32
764	2F20	20.50	19.77	16.74	51.58	7.16	-1.02
765	2F21	26.25	25.29	21.60	57.35	7.89	-1.47
766	2F22	33.33	32.31	28.01	63.60	7.79	-2.28
767	2F23	42.47	41.13	35.21	70.26	8.61	-1.85
768	2F24	54.46	52.84	44.71	77.78	9.07	-1.37
769	2G1	68.00	65.97	54.54	84.98	9.78	-0.12
770	2G2	78.38	77.18	64.24	90.41	8.00	-0.54
771	2G3	85.16	86.25	74.55	94.42	3.78	-2.99
772	2G4	86.02	87.60	76.00	94.99	2.92	-3.25
773	2G5	83.26	83.44	71.07	93.21	5.40	-2.02
774	2G6	71.81	66.63	51.95	85.32	16.52	3.25
775	2G7	22.01	10.40	0.44	38.54	70.49	58.22
776	2G8	22.93	11.01	0.48	39.60	70.12	59.18
777	2G9	22.09	10.41	0.52	38.56	70.77	56.65
778	2G10	21.90	10.36	0.46	38.47	70.28	57.65
779	2G11	23.76	11.62	0.49	40.61	69.45	60.75
780	2G12	22.05	10.37	0.64	38.50	70.86	54.24
781	2G13	19.92	9.51	0.41	36.95	67.35	55.94
782	2G14	26.51	13.80	0.51	43.95	66.73	66.23
783	2G15	22.24	10.43	1.18	38.60	71.29	45.62
784	2G16	1.23	1.36	1.00	11.70	-2.60	1.75
785	2G17	1.93	2.17	1.63	16.34	-3.66	1.65
786	2G18	3.00	3.43	2.58	21.67	-5.21	1.90
787	2G19	4.76	5.49	4.25	28.10	-6.65	1.62
788	2G20	7.26	8.30	6.57	34.60	-6.99	1.16
789	2G21	10.40	11.65	9.49	40.66	-6.24	0.41
790	2G22	14.48	16.09	13.40	47.09	-6.20	-0.35
791	2G23	19.38	21.40	18.03	53.38	-6.16	-0.85
792	2G24	25.29	27.80	23.75	59.71	-6.24	-1.54
793	2H1	32.52	35.80	31.20	66.37	-6.97	-2.63
794	2H2	40.22	44.31	38.59	72.43	-7.58	-2.79
795	2H3	50.08	55.03	47.13	79.06	-7.81	-2.07
796	2H4	62.25	67.69	56.91	85.85	-6.87	-1.12
797	2H5	75.25	80.52	67.09	91.92	-4.82	-0.62
798	2H6	84.87	88.90	76.13	95.54	-1.60	-2.42
799	2H7	85.95	89.70	76.97	95.87	-1.00	-2.56
800	2H8	81.06	86.22	72.96	94.40	-3.98	-1.63
801	2H9	62.66	72.20	56.18	88.07	-15.48	3.46
802	2H10	3.53	8.81	1.46	35.62	-56.51	36.91
803	2H11	3.19	8.27	1.44	34.54	-57.27	35.24
804	2H12	3.24	8.51	1.67	35.02	-58.50	33.44
805	2H13	4.05	9.64	1.44	37.19	-55.51	39.80
806	2H14	3.16	8.19	1.40	34.37	-57.12	35.47
807	2H15	3.27	8.63	1.99	35.27	-59.20	30.56
808	2H16	5.88	12.21	1.45	41.55	-51.25	47.26
809	2H17	3.06	7.77	1.41	33.50	-55.11	33.80
810	2H18	3.55	9.35	3.20	36.65	-60.56	23.07
811	2H19	1.21	1.18	1.45	10.42	2.21	-6.41
812	2H20	1.87	1.86	2.34	14.73	1.75	-7.97
813	2H21	2.93	2.93	3.78	19.75	1.99	-9.92
814	2H22	4.67	4.66	6.00	25.75	2.36	-11.50
815	2H23	7.22	7.19	8.90	32.24	2.77	-12.05
816	2H24	10.33	10.35	12.39	38.47	2.69	-12.39
817	2I1	14.61	14.50	17.26	44.94	3.91	-13.68
818	2I2	19.94	19.87	22.90	51.69	3.91	-13.76
819	2I3	25.65	25.54	29.00	57.60	4.34	-14.27
820	2I4	32.35	32.29	35.96	63.58	4.41	-14.44
821	2I5	40.95	40.99	44.99	70.17	4.42	-14.84
822	2I6	51.37	51.65	54.81	77.07	4.18	-14.06
823	2I7	62.76	63.21	64.18	83.55	4.22	-12.30
824	2I8	74.51	75.38	72.97	89.57	3.78	-9.97
825	2I9	84.19	86.09	77.75	94.35	2.24	-5.83
826	2I10	85.30	87.37	78.22	94.90	1.99	-5.29
827	2I11	80.91	82.52	76.67	92.80	2.62	-7.59
828	2I12	63.19	63.24	69.63	83.57	5.15	-17.35
829	2I13	3.71	1.38	12.45	11.82	48.92	-58.51
830	2I14	3.85	1.59	13.24	13.17	45.21	-58.39
831	2I15	3.58	1.34	12.27	11.54	48.07	-58.49
832	2I16	4.04	1.54	12.90	12.87	49.23	-57.99
833	2I17	4.19	1.93	14.38	15.13	41.56	-58.05
834	2I18	3.55	1.33	12.16	11.45	48.01	-58.31
835	2I19	5.04	1.96	13.91	15.28	52.07	-56.54
836	2I20	5.09	3.04	17.40	20.19	31.61	-56.65
837	2I21	3.41	1.31	11.54	11.37	46.10	-56.63
838	2I22	0.92	0.97	1.07	8.71	-0.45	-4.41
839	2I23	1.42	1.53	1.83	12.83	-1.81	-6.49
840	2I24	2.17	2.38	2.89	17.37	-2.63	-7.92
841	2J1	3.69	4.11	4.81	24.04	-4.10	-8.52
842	2J2	5.76	6.41	7.33	30.42	-4.62	-9.23
843	2J3	8.52	9.43	10.50	36.79	-4.81	-9.58
844	2J4	12.14	13.29	14.36	43.20	-4.55	-9.61
845	2J5	16.67	18.06	19.08	49.57	-4.08	-9.71
846	2J6	21.93	23.60	24.89	55.69	-3.81	-10.53
847	2J7	27.50	29.43	30.96	61.16	-3.47	-11.23
848	2J8	34.36	36.76	38.12	67.09	-3.66	-11.36
849	2J9	42.46	45.58	46.72	73.27	-4.39	-11.56
850	2J10	53.21	57.12	56.51	80.24	-4.72	-10.37
851	2J11	65.55	69.85	66.21	86.92	-3.99	-8.41
852	2J12	77.19	81.28	75.07	92.26	-2.36	-7.16
853	2J13	86.54	89.96	79.03	95.98	-0.37	-4.09
854	2J14	83.23	87.49	78.54	94.94	-2.14	-5.48
855	2J15	69.58	76.59	75.84	90.13	-8.98	-11.49
856	2J16	11.25	15.58	36.12	46.42	-24.72	-44.25
857	2J17	10.69	14.76	34.98	45.30	-24.06	-44.56
858	2J18	10.71	14.88	35.00	45.47	-24.60	-44.32
859	2J19	12.39	17.14	38.18	48.44	-25.43	-43.60
860	2J20	10.72	14.74	35.01	45.27	-23.71	-44.66
861	2J21	10.63	14.88	34.52	45.47	-25.22	-43.62
862	2J22	15.51	21.24	43.06	53.21	-26.41	-41.71
863	2J23	10.42	13.99	34.06	44.21	-21.34	-45.11
864	2J24	9.76	14.43	30.81	44.84	-29.26	-39.12
865	2K1	1.04	0.91	0.94	8.18	6.29	-3.34
866	2K2	1.67	1.45	1.60	12.27	7.37	-4.99
867	2K3	2.56	2.28	2.54	16.90	7.43	-5.95
868	2K4	4.06	3.63	4.12	22.42	8.36	-7.40
869	2K5	6.36	5.70	6.36	28.65	9.58	-8.14
870	2K6	9.61	8.74	9.49	35.47	9.96	-8.53
871	2K7	13.31	12.32	13.02	41.71	9.65	-8.59
872	2K8	17.61	16.49	17.12	47.61	9.51	-8.74
873	2K9	22.86	21.46	22.19	53.44	10.15	-9.38
874	2K10	29.16	27.51	28.19	59.44	10.46	-9.76
875	2K11	36.59	34.66	35.03	65.48	10.79	-9.84
876	2K12	45.70	43.02	43.19	71.57	12.37	-10.21
877	2K13	57.11	53.86	52.39	78.38	13.08	-9.19
878	2K14	69.97	66.70	62.71	85.35	12.47	-7.79
879	2K15	80.87	78.84	72.86	91.16	9.63	-7.13
880	2K16	86.65	88.01	78.23	95.17	3.35	-4.83
881	2K17	85.19	84.86	77.11	93.82	6.41	-6.20
882	2K18	77.97	71.07	70.95	87.52	19.62	-11.72
883	2K19	28.00	12.02	17.64	41.24	84.34	-20.91
884	2K20	26.81	11.34	16.50	40.15	84.34	-20.17
885	2K21	26.77	11.31	16.26	40.09	84.39	-19.67
886	2K22	29.62	13.01	19.40	42.78	83.97	-22.10
887	2K23	26.67	11.28	16.49	40.05	84.17	-20.29
888	2K24	26.67	11.27	16.04	40.03	84.27	-19.27
889	2L1	34.39	16.37	24.71	47.46	81.06	-24.40
890	2L2	24.49	10.42	16.75	38.58	81.39	-23.45
891	2L3	26.51	11.36	14.83	40.18	82.94	-16.02
892	2L4	1.15	1.20	0.73	10.57	-0.29	4.41
893	2L5	1.83	1.91	1.20	15.02	-0.37	4.61
894	2L6	2.79	2.94	1.90	19.81	-0.94	4.84
895	2L7	4.17	4.41	2.85	24.99	-1.19	5.54
896	2L8	6.37	6.76	4.42	31.26	-1.63	6.06
897	2L9	9.41	9.93	6.71	37.72	-1.39	5.97
898	2L10	13.24	13.88	9.82	44.06	-0.93	5.18
899	2L11	17.89	18.76	13.64	50.40	-1.05	4.72
900	2L12	23.15	24.15	17.99	56.24	-0.63	4.16
901	2L13	29.53	30.73	23.24	62.28	-0.36	3.85
902	2L14	36.71	38.23	29.64	68.19	-0.47	2.96
903	2L15	46.06	47.98	36.87	74.81	-0.57	3.66
904	2L16	58.08	60.36	45.52	82.03	-0.29	4.99
905	2L17	71.22	73.92	55.46	88.88	-0.11	5.62
906	2L18	82.20	85.53	65.63	94.11	-0.51	4.53
907	2L19	87.75	91.02	77.18	96.42	-0.03	-1.78
908	2L20	86.64	90.44	72.71	96.18	-1.03	1.65
909	2L21	81.86	87.67	53.51	95.02	-5.09	18.29
910	2L22	65.01	61.81	1.72	82.81	12.54	115.27
911	2L23	64.18	60.74	1.59	82.24	13.14	115.80
912	2L24	64.41	60.57	1.57	82.14	14.03	115.82
913	2M1	65.60	63.17	2.04	83.53	10.74	113.36
914	2M2	63.93	60.76	1.63	82.25	12.52	115.37
915	2M3	64.10	60.24	1.60	81.97	14.10	115.23
916	2M4	66.69	66.35	3.22	85.18	6.07	106.59
917	2M5	56.60	56.10	1.62	79.67	6.30	110.99
918	2M6	61.13	55.98	1.55	79.60	17.47	111.66
919	2M7	88.45	91.50	79.32	96.62	0.40	-3.24
920	2M8	88.50	91.53	79.46	96.63	0.44	-3.33
921	2M9	88.45	91.52	79.21	96.62	0.39	-3.14
922	2M10	88.54	91.58	79.45	96.65	0.43	-3.29
923	2M11	88.47	91.50	79.28	96.61	0.45	-3.21
924	2M12	88.58	91.61	79.61	96.66	0.45	-3.40
925	2M13	88.43	91.47	79.37	96.60	0.44	-3.31
926	2M14	88.58	91.61	79.52	96.66	0.45	-3.33
927	2M15	88.54	91.59	79.46	96.65	0.42	-3.29
928	2M16	88.53	91.55	79.49	96.64	0.47	-3.34
929	2M17	88.42	91.45	79.40	96.60	0.45	-3.34
930	2M18	88.42	91.43	79.46	96.59	0.48	-3.40
931	2M19	88.44	91.47	79.39	96.60	0.44	-3.32
932	2M20	88.45	91.48	79.43	96.61	0.46	-3.34
933	2M21	88.40	91.41	79.32	96.58	0.47	-3.30
934	2M22	88.52	91.53	79.57	96.63	0.49	-3.42
935	2M23	88.46	91.53	79.15	96.63	0.38	-3.08
936	2M24	88.62	91.66	79.54	96.68	0.45	-3.30
END_DATA
