UploadToAzureBlob method start 
 
set3Enabled =  473
 
156 
 
158 
 
161 True
 
set3Enabled =  473
 
166 
 
DB_Variable_storageaccountname =  stagdeichina
 
DB_Variable_containerName =  ubr-staging
 
strCountry =  china
 
DB_Variable_storageaccountname =  stagdeichina
 
 Line Number : 524
 
 Line Number 
 
Line Number : 598  Start Time : 15-04-2021 06:17:02 PM
 
Line Number : 599  Expiry Time : 16-04-2021 06:22:02 PM
 
Line Number : 604  SharedAccessExpiryTime : 16-04-2021 11:52:02 PM +05:30
 
Line Number : 606  SharedAccessStartTime : 14-04-2021 11:52:02 PM +05:30
 
Line Number : 607  Start Time : 15-04-2021 06:17:02 PM
 
Line Number : 608  Expiry Time : 16-04-2021 06:22:02 PM
 
UploadPhotosAndSaveinPhotosIMS is Called  
 
Get SubstoreName By Sub store id : 728  
 
Get SubstoreName By Sub store id : 725  : Id : 1
 
Get SubstoreName By Sub store id : 736  NQDEVENV
 
File exits Check : D:\\DigiImages\\EditedImages
 
File Path : C:\Program Files (x86)\iMix\azcopy_windows_amd64_10.3.4\azcopy.exe
 
Azure: Log info about original :
Job dbf12143-422b-7140-6d69-cce763d5b7a3 has started
Log file is located at: C:\Users\nqe00329\.azcopy\dbf12143-422b-7140-6d69-cce763d5b7a3.log

0 Files Scanned at Source, 0 Files Scanned at DestinationINFO: azcopy.exe: A newer version 10.10.0 is available to download

0 Files Scanned at Source, 0 Files Scanned at Destination13 Files Scanned at Source, 0 Files Scanned at Destination13 Files Scanned at Source, 0 Files Scanned at Destination13 Files Scanned at Source, 0 Files Scanned at Destination0.0 %, 0 Done, 0 Failed, 1 Pending, 1 Total, 2-sec Throughput (Mb/s): 00.0 %, 0 Done, 0 Failed, 1 Pending, 1 Total, 2-sec Throughput (Mb/s): 00.0 %, 0 Done, 0 Failed, 1 Pending, 1 Total, 2-sec Throughput (Mb/s): 00.0 %, 0 Done, 0 Failed, 1 Pending, 1 Total, 2-sec Throughput (Mb/s): 1.966100.0 %, 0 Done, 0 Failed, 1 Pending, 1 Total, 2-sec Throughput (Mb/s): 4.1894

Job dbf12143-422b-7140-6d69-cce763d5b7a3 Summary
Files Scanned at Source: 13
Files Scanned at Destination: 6
Elapsed Time (Minutes): 0.3002
Total Number Of Copy Transfers: 1
Number of Copy Transfers Completed: 1
Number of Copy Transfers Failed: 0
Number of Deletions at Destination: 0
Total Number of Bytes Transferred: 1538987
Total Number of Bytes Enumerated: 1538987
Final Job Status: Completed


 
File exits Check : D:\\DigiImages\\Minified_Images\20210415
 
Azure: Log info about minified :
Job 2e8cf792-cabe-c046-57d8-c6da469b788f has started
Log file is located at: C:\Users\nqe00329\.azcopy\2e8cf792-cabe-c046-57d8-c6da469b788f.log

0 Files Scanned at Source, 0 Files Scanned at Destination4 Files Scanned at Source, 7 Files Scanned at Destination, 2-sec Throughput (Mb/s): 0
The source and destination are already in sync.

 
Images are uploaded 
 
Image uploading is True
 
Json Data For Photo Json : {"FileName":"154350_1.jpg","RFID":"350","Frame":"","Background":"","Layering":"","Effects":"","IsCroped":false,"IsGreen":true,"MetaData":"","Size":"","IsRedEye":false,"IsArchived":false,"LocationId":"DXBEVEN0020201201T013254143GC65FEF8F9EA64141B2B113","Active":true,"CreatedBy":5,"CreatedDate":"2021-04-15T23:36:36.327","SubStoreId":"DXBEVEN0020201201T013254113G223DDF855C004DE589EC13","IMIXPhotoId":102,"CreatedOnMIX":"2021-04-15T23:36:36.327","LayeringObjects":"","Dimention":"","CaptureDate":"2000-02-12T00:33:38","GpsLatitude":0.0,"GpsLongitude":0.0,"MediaType":1,"IsBorder":false,"IsGraphics":false,"IsBackground":false,"VideoLength":0,"IsSyncedtoIMSDB":false}
 
{"PhotoId":54962652,"StatusCode":"S000","StatusText":"OK"}
 
Json Data For WebPhotos Json : {"PhotoId":54962652,"OrderNumber":"NA","IdentificationCode":"NA","LayeringObjects":"","Dimention":"","EditedOnMobile":false,"EditedDate":"2021-04-15T23:54:28.4913686+05:30","LayeringObjectsEditedOn":"2021-04-15T23:54:28.4913686+05:30","CloudImageUrl":"china/ubr-staging/NQDEVENV/20210415/154350_1.jpg","Height":2000,"Width":2992,"ThumbnailDimension":"2000,2992","IsPaidImage":false,"CloudSourceImageURL":"china/ubr-staging/NQDEVENV/20210415/m_154350_1.jpg"}
 
{"WebPhotoId":40496482,"StatusCode":"S000","StatusText":"OK"}
 
Json Data For CloudinaryDtl Json : {"PartnerId":32,"WebPhotoID":40496482,"SourceImageID":"154350_1.jpg","CloudinaryPublicID":"china/ubr-staging/NQDEVENV/20210415/154350_1.jpg","CloudinaryStatusID":1,"RetryCount":0,"ErrorMessage":"Minified,thumbnail uploaded successfully","AddedBy":"webusers","CreatedDateTime":"2021-04-15T23:36:36.327","ModifiedBy":"webusers","ModifiedDateTime":"2021-04-15T23:54:29.0971494+05:30","IsActive":true}
 
{"StatusCode":"S000","StatusText":"OK"}
 
Image MetaDeta is updated into Partner DB 
 
Azure service started
 
